{
  "PORT": "5001",
  "NODE_ENV": "development",
  "MONGODB_URL": "mongodb://localhost:27017/db-dev",
  "MONGODB_TEST_URL": "mongodb://localhost:27017/db-test",
  "JWT_SECRET": "thisisasamplesecret",
  "SMTP_HOST": "smtp.ethereal.email",
  "SMTP_PORT": "587",
  "SMTP_USERNAME": "",
  "SMTP_PASSWORD": "",
  "EMAIL_FROM": "support@beneficent.cc",
  "REACT_APP_API_ENDPOINT": "http://localhost:5001"
}