// Jest Snapshot v1, https://goo.gl/fbAQLP

exports[`Application Details matches snapshot 1`] = `
<DocumentFragment>
  <div
    class="MuiGrid-root application-details-container MuiGrid-container MuiGrid-spacing-xs-3"
    data-testid="skeleton-container"
  >
    <div
      class="MuiGrid-root MuiGrid-container MuiGrid-spacing-xs-2 MuiGrid-item"
    >
      <div
        class="MuiGrid-root MuiGrid-item MuiGrid-grid-xs-12"
      >
        <div
          class="MuiPaper-root application-details-box MuiPaper-elevation1 MuiPaper-rounded"
        >
          Application Information
        </div>
      </div>
      <div
        class="MuiGrid-root MuiGrid-item MuiGrid-grid-xs-12"
      >
        <div
          class="MuiPaper-root MuiCard-root application-overview MuiPaper-elevation1 MuiPaper-rounded"
          style="width: 1065px;"
        >
          <div
            id="application-overview-header"
          >
            <div
              class="MuiCardHeader-root"
            >
              <div
                class="MuiCardHeader-content"
              >
                <span
                  class="MuiTypography-root MuiCardHeader-title MuiTypography-h5 MuiTypography-displayBlock"
                >
                  Application Overview
                </span>
              </div>
            </div>
            <button
              class="MuiButtonBase-root MuiButton-root MuiButton-contained MuiButton-containedPrimary"
              id="app-ovr-view"
              style="color: white;"
              tabindex="0"
              type="button"
            >
              <span
                class="MuiButton-label"
              >
                View
              </span>
              <span
                class="MuiTouchRipple-root"
              />
            </button>
          </div>
          <hr
            id="ao-line"
          />
          <div
            class="MuiCardContent-root"
          >
            <div
              class="MuiGrid-root MuiGrid-container MuiGrid-spacing-xs-1"
              style="position: relative;"
            >
              <div
                class="MuiGrid-root MuiGrid-container MuiGrid-spacing-xs-5 MuiGrid-item MuiGrid-direction-xs-column MuiGrid-grid-xs-6"
                style="width: 303px; flex-basis: auto;"
              >
                <div
                  class="MuiGrid-root MuiGrid-item"
                >
                  <p
                    class="MuiTypography-root application-overview-label MuiTypography-body1"
                  >
                    <b>
                      Citizenship
                    </b>
                  </p>
                  <p
                    class="MuiTypography-root application-overview-value MuiTypography-body1"
                  >
                    Canadian
                  </p>
                </div>
                <div
                  class="MuiGrid-root MuiGrid-item"
                >
                  <p
                    class="MuiTypography-root application-overview-label MuiTypography-body1"
                  >
                    <b>
                      Employement Status
                    </b>
                  </p>
                  <p
                    class="MuiTypography-root application-overview-value MuiTypography-body1"
                  >
                    Unemployed
                  </p>
                </div>
                <div
                  class="MuiGrid-root MuiGrid-item"
                >
                  <p
                    class="MuiTypography-root application-overview-label MuiTypography-body1"
                  >
                    <b>
                      Amount Requested
                    </b>
                  </p>
                  <p
                    class="MuiTypography-root application-overview-value MuiTypography-body1"
                  >
                    $0000.00
                  </p>
                </div>
              </div>
              <div
                class="MuiGrid-root MuiGrid-container MuiGrid-spacing-xs-5 MuiGrid-item MuiGrid-direction-xs-column MuiGrid-grid-xs-6"
                style="width: 225px; flex-basis: auto;"
              >
                <div
                  class="MuiGrid-root MuiGrid-item"
                >
                  <p
                    class="MuiTypography-root application-overview-label MuiTypography-body1"
                  >
                    <b>
                      Loan Type
                    </b>
                  </p>
                  <p
                    class="MuiTypography-root application-overview-value MuiTypography-body1"
                  >
                    xyx loan
                  </p>
                </div>
                <div
                  class="MuiGrid-root MuiGrid-item"
                >
                  <p
                    class="MuiTypography-root application-overview-label MuiTypography-body1"
                  >
                    <b>
                      Guarantor
                    </b>
                  </p>
                  <p
                    class="MuiTypography-root application-overview-value MuiTypography-body1"
                  >
                    Yes
                  </p>
                </div>
              </div>
              <div
                class="MuiGrid-root MuiGrid-container MuiGrid-spacing-xs-5 MuiGrid-item MuiGrid-direction-xs-column MuiGrid-grid-xs-6"
                id="application-overview-acknowledgements"
                style="width: 650px; flex-basis: auto;"
              >
                <div
                  class="MuiGrid-root MuiGrid-item"
                  style="width: 650px;"
                >
                  <p
                    class="MuiTypography-root citizenship-label MuiTypography-body1"
                  >
                    <b>
                      Acknowledgments
                    </b>
                  </p>
                  <div
                    class="acknowledgement-check"
                  >
                    <input
                      checked=""
                      type="checkbox"
                    />
                    <span
                      style="padding-top: 5px;"
                    >
                      Loan purpose is for credit card, emergency, or similar high interest bearing debt
                    </span>
                  </div>
                  <div
                    class="acknowledgement-check"
                  >
                    <input
                      checked=""
                      type="checkbox"
                    />
                    <span
                      style="padding-top: 5px;"
                    >
                      Maximum loan value of $4,000
                    </span>
                  </div>
                  <div
                    class="acknowledgement-check"
                  >
                    <input
                      checked=""
                      type="checkbox"
                    />
                    <span
                      style="padding-top: 5px;"
                    >
                      Repayment within 12 months
                    </span>
                  </div>
                  <div
                    class="acknowledgement-check"
                  >
                    <input
                      checked=""
                      type="checkbox"
                    />
                    <span
                      style="padding-top: 5px;"
                    >
                      Residence in Canada
                    </span>
                  </div>
                  <div
                    class="acknowledgement-check"
                  >
                    <input
                      checked=""
                      type="checkbox"
                    />
                    <span
                      style="padding-top: 5px;"
                    >
                      Positive net income
                    </span>
                  </div>
                  <div
                    class="acknowledgement-check"
                  >
                    <input
                      checked=""
                      type="checkbox"
                    />
                    <span
                      style="padding-top: 5px;"
                    >
                      Guarantor consent
                    </span>
                  </div>
                </div>
              </div>
            </div>
          </div>
        </div>
      </div>
      <div
        class="MuiGrid-root MuiGrid-item MuiGrid-grid-xs-12"
      >
        <div
          class="MuiPaper-root application-details-box MuiPaper-elevation1 MuiPaper-rounded"
        >
          Applicaiton Documents
        </div>
      </div>
      <div
        class="MuiGrid-root MuiGrid-item MuiGrid-grid-xs-12"
      >
        <div
          class="MuiPaper-root application-details-box MuiPaper-elevation1 MuiPaper-rounded"
        >
          Application Contracts
        </div>
      </div>
    </div>
  </div>
</DocumentFragment>
`;
