// Jest Snapshot v1, https://goo.gl/fbAQLP

exports[`matches snapshot 1`] = `
<DocumentFragment>
  <div
    class="MuiFormControl-root"
  >
    <div
      class="MuiInputBase-root MuiInputBase-formControl"
    >
      <div
        aria-haspopup="listbox"
        aria-labelledby="assignedTo-select-label assignedTo-select"
        class="MuiSelect-root MuiSelect-select MuiSelect-selectMenu MuiSelect-outlined MuiInputBase-input WithStyles(ForwardRef(InputBase))-input-1"
        id="assignedTo-select"
        role="button"
        tabindex="0"
      >
        <span
          class="empty"
        >
          Not Assigned
        </span>
      </div>
      <input
        aria-hidden="true"
        class="MuiSelect-nativeInput"
        tabindex="-1"
        value=""
      />
      <svg
        aria-hidden="true"
        class="MuiSvgIcon-root MuiSelect-icon dropdown-icon MuiSelect-iconOutlined"
        focusable="false"
        viewBox="0 0 24 24"
      >
        <path
          d="M16.59 8.59L12 13.17 7.41 8.59 6 10l6 6 6-6z"
        />
      </svg>
    </div>
  </div>
</DocumentFragment>
`;

exports[`matches snapshot when given default value 1`] = `
<DocumentFragment>
  <div
    class="MuiFormControl-root"
  >
    <div
      class="MuiInputBase-root MuiInputBase-formControl"
    >
      <div
        aria-haspopup="listbox"
        aria-labelledby="assignedTo-select-label assignedTo-select"
        class="MuiSelect-root MuiSelect-select MuiSelect-selectMenu MuiSelect-outlined MuiInputBase-input WithStyles(ForwardRef(InputBase))-input-2"
        id="assignedTo-select"
        role="button"
        tabindex="0"
      >
        <div
          class="profile"
        >
          <div
            class="status-bar"
          />
          <img
            src="avatar.png"
          />
          <span>
            Sarah
          </span>
        </div>
      </div>
      <input
        aria-hidden="true"
        class="MuiSelect-nativeInput"
        tabindex="-1"
        value="Sarah"
      />
      <svg
        aria-hidden="true"
        class="MuiSvgIcon-root MuiSelect-icon dropdown-icon MuiSelect-iconOutlined"
        focusable="false"
        viewBox="0 0 24 24"
      >
        <path
          d="M16.59 8.59L12 13.17 7.41 8.59 6 10l6 6 6-6z"
        />
      </svg>
    </div>
  </div>
</DocumentFragment>
`;
