// Jest Snapshot v1, https://goo.gl/fbAQLP

exports[`Preferences Box matches snapshot 1`] = `
<DocumentFragment>
  <div
    class="MuiPaper-root MuiCard-root MuiPaper-elevation1 MuiPaper-rounded"
  >
    <div
      class="MuiCardHeader-root"
    >
      <div
        class="MuiCardHeader-content"
      >
        <span
          class="MuiTypography-root MuiCardHeader-title MuiTypography-h6 MuiTypography-displayBlock"
          style="font-weight: 700;"
        >
          Preferences
        </span>
        <span
          class="MuiTypography-root MuiCardHeader-subheader MuiTypography-body1 MuiTypography-colorTextSecondary MuiTypography-displayBlock"
        >
          Edit your preference details here
        </span>
      </div>
    </div>
    <div
      class="MuiCardContent-root"
    >
      <form>
        <div
          class="MuiInputBase-root MuiFilledInput-root MuiFilledInput-underline Mui-disabled Mui-disabled MuiInputBase-fullWidth MuiInputBase-adornedStart MuiFilledInput-adornedStart"
        >
          <div
            class="MuiInputAdornment-root MuiInputAdornment-positionStart"
          >
            <svg
              aria-hidden="true"
              class="MuiSvgIcon-root"
              focusable="false"
              viewBox="0 0 24 24"
            >
              <path
                d="M12 2C6.48 2 2 6.48 2 12s4.48 10 10 10h5v-2h-5c-4.34 0-8-3.66-8-8s3.66-8 8-8 8 3.66 8 8v1.43c0 .79-.71 1.57-1.5 1.57s-1.5-.78-1.5-1.57V12c0-2.76-2.24-5-5-5s-5 2.24-5 5 2.24 5 5 5c1.38 0 2.64-.56 3.54-1.47.65.89 1.77 1.47 2.96 1.47 1.97 0 3.5-1.6 3.5-3.57V12c0-5.52-4.48-10-10-10zm0 13c-1.66 0-3-1.34-3-3s1.34-3 3-3 3 1.34 3 3-1.34 3-3 3z"
              />
            </svg>
          </div>
          <input
            aria-invalid="false"
            class="MuiInputBase-input MuiFilledInput-input Mui-disabled Mui-disabled MuiInputBase-inputAdornedStart MuiFilledInput-inputAdornedStart"
            disabled=""
            name="email"
            placeholder="Email"
            type="text"
            value=""
          />
        </div>
        <div
          class="MuiInputBase-root MuiFilledInput-root MuiFilledInput-underline Mui-disabled Mui-disabled MuiInputBase-fullWidth MuiInputBase-adornedStart MuiFilledInput-adornedStart"
        >
          <div
            class="MuiInputAdornment-root MuiInputAdornment-positionStart"
          >
            <svg
              aria-hidden="true"
              class="MuiSvgIcon-root"
              focusable="false"
              viewBox="0 0 24 24"
            >
              <path
                d="M18 8h-1V6c0-2.76-2.24-5-5-5S7 3.24 7 6v2H6c-1.1 0-2 .9-2 2v10c0 1.1.9 2 2 2h12c1.1 0 2-.9 2-2V10c0-1.1-.9-2-2-2zm-6 9c-1.1 0-2-.9-2-2s.9-2 2-2 2 .9 2 2-.9 2-2 2zm3.1-9H8.9V6c0-1.71 1.39-3.1 3.1-3.1 1.71 0 3.1 1.39 3.1 3.1v2z"
              />
            </svg>
          </div>
          <input
            aria-invalid="false"
            class="MuiInputBase-input MuiFilledInput-input Mui-disabled Mui-disabled MuiInputBase-inputAdornedStart MuiFilledInput-inputAdornedStart"
            disabled=""
            name="password"
            placeholder="Password"
            type="password"
            value=""
          />
        </div>
        <button
          class="MuiButtonBase-root MuiButton-root MuiButton-outlined"
          style="box-shadow: none; float: right; margin: 16px 32px;"
          tabindex="0"
          type="button"
        >
          <span
            class="MuiButton-label"
          >
            Edit
          </span>
          <span
            class="MuiTouchRipple-root"
          />
        </button>
      </form>
    </div>
  </div>
</DocumentFragment>
`;
